0.31	316	Bourali dům, je_ jsem prodal.
0.35	304	terciá_ní vzdělávání
0.4	319	nejplyt_í projev
0.48	325	Spatřil jsem město, je_ jsem dříve opustil.
0.48	308	krot_í zvíře
0.49	324	vra_ do něj
0.5	309	Postávali na nádražích, je_ jsou určena k demolici.
0.5	325	živeln_ katastrofa
0.51	345	živeln_ pohroma
0.53	320	břit_í ostří
0.56	310	živeln_ pojištění
0.58	322	dívka, je_ je nebojácná
0.58	309	vrat_í
0.58	303	rostlina, je_ měla květy
0.6	321	prud_í svah
0.61	321	Dal si do úst hranol_
0.61	310	biling_ní dítě
0.62	324	nejkluz_í povrch
0.62	325	Zvedl hrnec za u_.
0.62	302	židle s noham_
0.63	319	hodinky s ručičkam_
0.63	304	Pozorovala vlka, je_ se kradl blíž k táboru.
0.63	326	Spatřil jsem _ koťata jako včera.
0.64	294	Nejsem člověk, je_ z boje utíká.
0.65	328	sla_í ovoce
0.65	307	hust_í tekutina
0.69	298	heb_í pleť
0.7	317	nejslad_í čaj
0.7	314	přihla_te se
0.71	309	svazek, je_ je zakázán
0.72	319	hlad_eji
0.72	323	sprost_í nadávka
0.72	308	ohla_ to na ústředí
0.73	303	závazky, _miž jsem povinován
0.74	305	Dítě plácalo ručičkam_.
0.75	320	sliz_í
0.76	291	pohybovat se vra_čeji
0.77	301	vrátil _
0.77	311	Toulous_-Lautrecovo zátiší
0.77	306	krat_í sukně
0.77	325	nejprost_í ozdoba
0.77	326	Oblékl jsem si _ svetr.
0.77	313	ten_í
0.78	316	aby_ přišli včas
0.78	324	nůše s proutěnými u_
0.78	303	nejjednodu_ší
0.78	328	ti_ší píseň
0.78	319	Čekala jsem na nádraží _ manželem.
0.79	313	plyt_ejší fráze
0.79	325	chovat se krot_eji
0.79	303	Měli by_ už jít.
0.8	293	sousedé, s _miž se setkávám
0.8	320	trp_í víno
0.8	301	Robátko kopalo noham_.
0.8	322	vymalovat zeď b_leji
0.81	323	o_ na punčoše
0.81	316	bled_í tvář
0.81	305	tě_ší
0.82	313	nejzaz_í kontinent
0.82	317	Bylo mi líto zvířat, _ čekalo očkování.
0.82	306	hrál by_ se mnou
0.82	308	Aby_ to stihli…
0.83	312	postřehli by_
0.83	307	Dala by_ si koláč?
0.83	321	pomohli by_
0.84	318	žena, k _ jsem cítil závazek
0.84	319	u_ší
0.84	333	hrub_í plátno
0.84	308	Mari_-Michelina sbírka
0.84	312	mohl by_
0.85	315	zaměstnanec, s _ímž mám nevyřízené účty
0.86	324	udeřit tvrd_ji
0.86	315	hlu_ší než děda
0.86	325	vypadat bled_ji
0.87	312	Jea_-Claudův kop
0.87	320	nejvlh_í místo
0.87	336	vy_ší
0.87	314	křep_í člověk
0.87	315	Poskakoval křep_eji
0.87	308	ni_ší
0.87	324	lidé, _mž jsem zavázán
0.88	322	Lhal _ dlouhou dobu do kapsy.
0.88	309	Zhlédli jsme video kamarádů _ cesty.
0.88	302	láhev, bez _ž si neumí představit život
0.88	315	slab_í spolužák
0.88	326	Měl by _ na to podívat.
0.88	311	nejmen_í
0.88	315	hlub_í
0.88	307	plo_í kámen
0.88	302	mlad_í partner
0.88	302	štěňata, _ se ztratila
0.89	321	dra_ší
0.89	299	řid_ji
0.9	307	Neměli by_ se ostýchat.
0.9	324	nejměk_í povlečení
0.9	326	mlad_í žena
0.9	299	nejleh_í
0.9	325	měk_í podložka
0.9	295	Přivedl _ kamaráda, koukám.
0.9	301	robotické ru_
0.91	314	zacházet hrub_ji
0.91	297	nejmlad_í syn
0.91	320	aby_ dorazil včas
0.91	325	Sbalil _ svačinu?
0.92	319	nejsna_ší řešení
0.92	299	individu_lní přístup
0.92	327	nejhez_í
0.92	327	bli_ší
0.92	333	b_lejší podklad
0.92	296	Vzala _ domů podnájemníka?
0.93	320	křeh_í
0.93	326	vypadal nejměk_eji
0.93	304	vylepšil by_
0.93	318	byl by_ přinesl
0.93	320	Kdyby _ přivstal, mohls být u toho.
0.93	308	Vytahal ho za u_.
0.93	304	Kdyby_ to býval věděl.
0.93	321	Mohla _ s ním potkat.
0.93	307	Měla by_ jí to dát najevo.
0.94	308	Byl ještě hluš_í
0.94	313	šilhal o_
0.94	309	vizu_lní kultura
0.94	310	Před _ se neostýchej.
0.94	332	jednodu_eji
0.94	305	leh_í úkol
0.95	317	tiš_í promluva
0.95	314	suš_ dřevo
0.95	322	nejlep_í
0.95	312	já by_ rád hrál
0.95	315	Měl by _ to rozmyslet.
0.95	310	aktu_lní podoba
0.96	314	suš_í zápalka
0.96	321	Dům působil vlh_eji než jiné.
0.96	322	byli by_ bývali zapomněli
0.96	314	Nechtěl by _ o tom promluvit?
0.97	310	Bylo mi leh_eji.
0.97	316	níž_í stupeň
