0.27	166	prot_žovat někoho
0.28	185	filozofická t_matika
0.29	180	exek_
0.3	176	t_matický
0.33	175	sch_matický
0.35	177	_datovat narození
0.4	172	d_sfunkce
0.4	198	f_bie
0.45	166	enviro_entální výchova
0.46	185	v_ceprezident
0.47	182	beg_nie
0.47	191	zahradní _
0.47	178	et_mologie slova
0.49	174	d_slektik
0.5	168	bankovní dev_za
0.51	184	intr_venózní podání léku
0.51	187	inte_upce
0.54	176	di_ident
0.54	173	gno_eologie
0.54	180	bu_etin
0.56	180	standar_ní
0.56	171	parano_a
0.56	174	japonští _
0.57	192	Nelhat byla jeho životní dev_za.
0.58	170	pol_technika
0.59	169	entu_iasmus
0.59	174	pe_orativní obrat
0.6	170	kon_olidace
0.61	171	obrátit káno_
0.63	179	vig_lie
0.63	174	tript_ch
0.65	178	s_nusoida
0.65	177	b_rokracie
0.67	172	pre_umpce
0.68	176	kontejn_r
0.69	182	paral_za
0.69	189	rusalky a _
0.69	168	abb_
0.69	173	per_ekvovat
0.69	177	nastavený standar_
0.7	188	su_ealismus
0.7	170	tabáková lo_y
0.71	172	základní axi_m
0.71	177	t_ra
0.73	183	suge_ce
0.74	187	na Mar_u
0.74	158	de_integrace
0.74	171	de_perát
0.74	164	ex_ktní
0.75	178	telef_n
0.76	176	de_informace
0.76	183	s_ngulární
0.77	169	d_sharmonie
0.77	183	di_kontinuita
0.77	192	sib_rie
0.77	167	s_nkretický
0.77	182	malování v plen_ru
0.78	170	módní de_ign
0.78	175	lesní dry_
0.78	172	filo_ofie
0.78	164	kuličk_áda
0.79	164	tuberkul_za
0.79	180	_roplán
0.79	186	lo_ální zaměstnanec
0.79	167	stavěli igl_
0.79	163	agno_tik
0.79	184	s_nekdocha
0.79	175	gene_e
0.79	180	konferenci_r
0.81	180	an_ologie textů
0.81	170	de_ertér
0.81	175	s_ntetický
0.81	170	de_iluze
0.81	171	cyn_k
0.81	177	technické l_ceum
0.82	179	depilace la_erem
0.82	174	epi_oda seriálu
0.82	181	ang_na
0.82	162	sub_ktivní
0.82	162	s_nkopa
0.82	182	a_ulovat
0.83	171	není to trag_die
0.83	172	redundan_ní
0.84	178	derni_ra
0.84	175	su_tilní
0.84	176	ep_gram
0.84	178	buržoa_ie
0.84	172	discipl_na
0.84	173	wrestlin_
0.84	167	sch_ma
0.84	187	architekt_ra
0.85	164	out_
0.85	171	opi_
0.85	168	sk_alpinista
0.85	175	d_lema
0.85	169	d_zonance
0.85	178	ri_k
0.86	173	jeden _
0.86	175	t_ma
0.86	169	d_sproporce
0.86	172	v_ceboj
0.86	176	statu_ quo
0.87	174	pr_mie
0.87	178	d_spozice
0.87	186	iniciat_va
0.87	171	ar_ma kávy
0.87	180	lobb_sté v parlamentu
0.87	174	gilot_na
0.88	168	stromořadí t_jí
0.88	168	de_orientovaný
0.88	178	gymná_ium
0.88	173	český premi_r
0.88	169	exz_m
0.88	169	re_oluce
0.88	170	g_mnastika
0.88	171	s_mpatie
0.89	176	f_rie
0.89	177	re_ignace
0.89	169	aud_t
0.89	188	arch_vář
0.89	180	baz_n
0.89	180	věčný _
0.89	199	re_istence
0.89	175	klauni_
0.89	170	de_olátní
0.89	180	ba_ilika
0.89	171	fanta_ie
0.9	181	ilu_ivní
0.9	173	synt_za
0.9	175	pau_a na oběd
0.9	175	s_nonymní sdělení
0.9	156	m_nie
0.9	177	d_sponovat
0.9	182	_ drog
0.9	183	ohrané kliš_
0.9	186	refr_n
0.9	189	odešel na pen_i
0.91	173	peroxi_
0.91	184	dimen_e
0.91	174	man_
0.91	176	sk_tr
0.91	176	a_yl
0.91	188	kom_die
0.91	178	obchodní fú_e
0.91	167	san_inik
0.91	173	neur_tik
0.91	176	revi_ní technik
0.92	177	chromo_om
0.92	180	bet_n
0.92	180	s_nagoga
0.92	181	ritu_lní
0.92	169	kon_ole
0.92	171	suter_n
0.92	159	b_sexuál
0.92	176	pol_klinika
0.92	184	sen_ace
0.92	173	i_olace
0.93	188	provinc_
0.93	162	potenci_lní
0.93	164	provi_e
0.93	178	lokomot_va
0.93	180	pin_-pong
0.93	184	exkur_e
0.93	171	rec_proční jednání
0.93	158	emul_e
0.93	173	fotba_
0.93	178	a_strakce
0.93	164	závěrečné rek_iem
0.93	194	rab_n
0.93	167	tr_logie
0.93	183	sicil_ mafián
0.93	183	atrakt_vní
0.93	168	kon_ervativec
0.93	169	respekt_ve
0.94	170	intr_vert
0.94	158	pre_entovat
0.94	182	d_vergentní vývoj
0.94	166	mult_kulturní
0.94	184	ar_matický sýr
0.94	171	fat_lní
0.94	173	socha m_zy
0.94	173	pof_dérní nápad
0.94	174	na bá_i dřeva
0.94	175	manu_l
0.94	175	inva_e
0.94	176	na po_ici
0.94	179	pejorat_vní označení
0.95	174	koro_e
0.95	175	med_za
0.95	177	dělostřelecká divi_e
0.95	180	ohraná ka_eta
0.95	181	flex_bilní
0.95	165	nervó_a
0.95	169	sc_na
0.96	162	neuró_a
0.96	169	zkorodovaná kon_erva
0.96	170	ri_iko
0.96	174	organi_ace
0.96	175	explo_e
0.96	175	_achta
0.96	186	v jiné dimen_i
0.97	172	manu_lní práce
0.98	168	pró_a
0.98	175	expo_ice
0.98	182	analý_a
